{
  "code": 200,
  "meta": {
    "pagination": {
      "total": 1389,
      "pages": 70,
      "page": 1,
      "limit": 20
    }
  },
  "data": [
    {
      "id": 16,
      "name": "Indira Mukhopadhyay",
      "email": "indira_mukhopadhyay@hauck.io",
      "gender": "Male",
      "status": "Inactive",
      "created_at": "2021-05-13T03:50:04.320+05:30",
      "updated_at": "2021-05-13T03:50:04.320+05:30"
    },
    {
      "id": 17,
      "name": "Lai Singh",
      "email": "lai_singh@beier.net",
      "gender": "Female",
      "status": "Active",
      "created_at": "2021-05-13T03:50:04.330+05:30",
      "updated_at": "2021-05-13T03:50:04.330+05:30"
    },
    {
      "id": 18,
      "name": "Adikavi Patil",
      "email": "adikavi_patil@barton.name",
      "gender": "Female",
      "status": "Active",
      "created_at": "2021-05-13T03:50:04.333+05:30",
      "updated_at": "2021-05-13T03:50:04.333+05:30"
    },
    {
      "id": 19,
      "name": "Deenabandhu Mukhopadhyay II",
      "email": "ii_deenabandhu_mukhopadhyay@weimann-bogan.org",
      "gender": "Male",
      "status": "Inactive",
      "created_at": "2021-05-13T03:50:04.356+05:30",
      "updated_at": "2021-05-13T03:50:04.356+05:30"
    },
    {
      "id": 21,
      "name": "Sen. Vasudha Nair",
      "email": "sen_vasudha_nair@langworth-kihn.net",
      "gender": "Male",
      "status": "Active",
      "created_at": "2021-05-13T03:50:04.368+05:30",
      "updated_at": "2021-05-13T03:50:04.368+05:30"
    },
    {
      "id": 23,
      "name": "Shubha Bhat",
      "email": "bhat_shubha@ortiz-langworth.co",
      "gender": "Male",
      "status": "Active",
      "created_at": "2021-05-13T03:50:04.384+05:30",
      "updated_at": "2021-05-13T03:50:04.384+05:30"
    },
    {
      "id": 24,
      "name": "Aaditya Kaniyar",
      "email": "kaniyar_aaditya@hodkiewicz.net",
      "gender": "Female",
      "status": "Inactive",
      "created_at": "2021-05-13T03:50:04.391+05:30",
      "updated_at": "2021-05-13T03:50:04.391+05:30"
    },
    {
      "id": 26,
      "name": "Washington Luis Cabral da Silva",
      "email": "wluissilva@live.com",
      "gender": "Male",
      "status": "Active",
      "created_at": "2021-05-13T03:50:04.439+05:30",
      "updated_at": "2021-05-13T08:42:34.023+05:30"
    },
    {
      "id": 27,
      "name": "Smita Achari DC",
      "email": "dc_achari_smita@rice-beatty.com",
      "gender": "Male",
      "status": "Active",
      "created_at": "2021-05-13T03:50:04.446+05:30",
      "updated_at": "2021-05-13T03:50:04.446+05:30"
    },
    {
      "id": 28,
      "name": "Ajeet Butt",
      "email": "butt_ajeet@jacobson.biz",
      "gender": "Male",
      "status": "Inactive",
      "created_at": "2021-05-13T03:50:04.466+05:30",
      "updated_at": "2021-05-13T03:50:04.466+05:30"
    },
    {
      "id": 29,
      "name": "Deb Iyengar DO",
      "email": "deb_iyengar_do@lehner-morar.co",
      "gender": "Male",
      "status": "Inactive",
      "created_at": "2021-05-13T03:50:04.487+05:30",
      "updated_at": "2021-05-13T03:50:04.487+05:30"
    },
    {
      "id": 30,
      "name": "Agrata Devar PhD",
      "email": "devar_agrata_phd@price.com",
      "gender": "Male",
      "status": "Active",
      "created_at": "2021-05-13T03:50:04.490+05:30",
      "updated_at": "2021-05-13T03:50:04.490+05:30"
    },
    {
      "id": 31,
      "name": "Chandranath Devar",
      "email": "chandranath_devar@towne.name",
      "gender": "Male",
      "status": "Active",
      "created_at": "2021-05-13T03:50:04.521+05:30",
      "updated_at": "2021-05-13T03:50:04.521+05:30"
    },
    {
      "id": 33,
      "name": "Deeptanshu Gowda PhD",
      "email": "deeptanshu_gowda_phd@corwin.io",
      "gender": "Male",
      "status": "Inactive",
      "created_at": "2021-05-13T03:50:04.554+05:30",
      "updated_at": "2021-05-13T03:50:04.554+05:30"
    },
    {
      "id": 34,
      "name": "Bhudev Shukla",
      "email": "bhudev_shukla@altenwerth.com",
      "gender": "Female",
      "status": "Inactive",
      "created_at": "2021-05-13T03:50:04.557+05:30",
      "updated_at": "2021-05-13T03:50:04.557+05:30"
    },
    {
      "id": 35,
      "name": "Tara Nambeesan",
      "email": "tara_nambeesan@koss.io",
      "gender": "Male",
      "status": "Inactive",
      "created_at": "2021-05-13T03:50:04.575+05:30",
      "updated_at": "2021-05-13T03:50:04.575+05:30"
    },
    {
      "id": 37,
      "name": "Vyas Deshpande I",
      "email": "i_vyas_deshpande@moen.co",
      "gender": "Male",
      "status": "Inactive",
      "created_at": "2021-05-13T03:50:04.620+05:30",
      "updated_at": "2021-05-13T03:50:04.620+05:30"
    },
    {
      "id": 38,
      "name": "Dhanvin Sharma",
      "email": "sharma_dhanvin@batz.net",
      "gender": "Male",
      "status": "Inactive",
      "created_at": "2021-05-13T03:50:04.626+05:30",
      "updated_at": "2021-05-13T03:50:04.626+05:30"
    },
    {
      "id": 39,
      "name": "Vasundhara Gupta",
      "email": "vasundhara_gupta@kertzmann.info",
      "gender": "Female",
      "status": "Active",
      "created_at": "2021-05-13T03:50:04.628+05:30",
      "updated_at": "2021-05-13T03:50:04.628+05:30"
    },
    {
      "id": 40,
      "name": "Velma Ryan",
      "email": "Weldon.Little72@gmail.com",
      "gender": "Male",
      "status": "Active",
      "created_at": "2021-05-13T03:50:04.647+05:30",
      "updated_at": "2021-05-13T08:37:18.499+05:30"
    }
  ]
}