{
  "code": 200,
  "meta": {
    "pagination": {
      "total": 1386,
      "pages": 70,
      "page": 1,
      "limit": 20
    }
  },
  "data": [
    {
      "id": 1,
      "name": "Gorakhnath Varman DVM",
      "email": "gorakhnath_dvm_varman@kessler.biz",
      "gender": "Male",
      "status": "Active",
      "created_at": "2021-05-11T03:50:03.289+05:30",
      "updated_at": "2021-05-11T03:50:03.289+05:30"
    },
    {
      "id": 2,
      "name": "Chidaakaash Trivedi",
      "email": "chidaakaash_trivedi@weissnat-fisher.io",
      "gender": "Male",
      "status": "Active",
      "created_at": "2021-05-11T03:50:03.294+05:30",
      "updated_at": "2021-05-11T03:50:03.294+05:30"
    },
    {
      "id": 3,
      "name": "Padma Varrier",
      "email": "varrier_padma@ullrich-tremblay.io",
      "gender": "Male",
      "status": "Inactive",
      "created_at": "2021-05-11T03:50:03.335+05:30",
      "updated_at": "2021-05-11T03:50:03.335+05:30"
    },
    {
      "id": 4,
      "name": "Prof. Brahmaanand Guha",
      "email": "prof_guha_brahmaanand@keeling-grady.net",
      "gender": "Male",
      "status": "Active",
      "created_at": "2021-05-11T03:50:03.369+05:30",
      "updated_at": "2021-05-11T03:50:03.369+05:30"
    },
    {
      "id": 5,
      "name": "Dhara Saini",
      "email": "saini_dhara@schimmel.org",
      "gender": "Female",
      "status": "Active",
      "created_at": "2021-05-11T03:50:03.391+05:30",
      "updated_at": "2021-05-11T03:50:03.391+05:30"
    },
    {
      "id": 6,
      "name": "Garuda Mukhopadhyay",
      "email": "mukhopadhyay_garuda@abbott.name",
      "gender": "Male",
      "status": "Active",
      "created_at": "2021-05-11T03:50:03.397+05:30",
      "updated_at": "2021-05-11T03:50:03.397+05:30"
    },
    {
      "id": 7,
      "name": "Amb. Gautami Dutta",
      "email": "amb_dutta_gautami@gleason.net",
      "gender": "Male",
      "status": "Active",
      "created_at": "2021-05-11T03:50:03.421+05:30",
      "updated_at": "2021-05-11T03:50:03.421+05:30"
    },
    {
      "id": 8,
      "name": "Bilva Bhattathiri",
      "email": "bilva_bhattathiri@quitzon.io",
      "gender": "Male",
      "status": "Active",
      "created_at": "2021-05-11T03:50:03.426+05:30",
      "updated_at": "2021-05-11T03:50:03.426+05:30"
    },
    {
      "id": 9,
      "name": "Dandapaani Bhattathiri",
      "email": "bhattathiri_dandapaani@kunze.io",
      "gender": "Male",
      "status": "Inactive",
      "created_at": "2021-05-11T03:50:03.442+05:30",
      "updated_at": "2021-05-11T03:50:03.442+05:30"
    },
    {
      "id": 10,
      "name": "Sher Menon",
      "email": "menon_sher@kling-jacobson.org",
      "gender": "Male",
      "status": "Active",
      "created_at": "2021-05-11T03:50:03.470+05:30",
      "updated_at": "2021-05-11T03:50:03.470+05:30"
    },
    {
      "id": 11,
      "name": "Bhoj Singh",
      "email": "singh_bhoj@wehner.biz",
      "gender": "Male",
      "status": "Active",
      "created_at": "2021-05-11T03:50:03.475+05:30",
      "updated_at": "2021-05-11T03:50:03.475+05:30"
    },
    {
      "id": 12,
      "name": "Arya Kaur",
      "email": "kaur_arya@kuhlman.info",
      "gender": "Male",
      "status": "Active",
      "created_at": "2021-05-11T03:50:03.494+05:30",
      "updated_at": "2021-05-11T03:50:03.494+05:30"
    },
    {
      "id": 13,
      "name": "Achalesvara Prajapat DC",
      "email": "prajapat_dc_achalesvara@dickens.com",
      "gender": "Female",
      "status": "Inactive",
      "created_at": "2021-05-11T03:50:03.520+05:30",
      "updated_at": "2021-05-11T03:50:03.520+05:30"
    },
    {
      "id": 14,
      "name": "Anunay Bandopadhyay",
      "email": "anunay_bandopadhyay@leuschke-borer.biz",
      "gender": "Female",
      "status": "Inactive",
      "created_at": "2021-05-11T03:50:03.539+05:30",
      "updated_at": "2021-05-11T03:50:03.539+05:30"
    },
    {
      "id": 15,
      "name": "Sen. Brahmanandam Ahuja",
      "email": "brahmanandam_sen_ahuja@yost.org",
      "gender": "Female",
      "status": "Active",
      "created_at": "2021-05-11T03:50:03.563+05:30",
      "updated_at": "2021-05-11T03:50:03.563+05:30"
    },
    {
      "id": 16,
      "name": "Devi Dubashi",
      "email": "devi_dubashi@mcclure.com",
      "gender": "Female",
      "status": "Active",
      "created_at": "2021-05-11T03:50:03.579+05:30",
      "updated_at": "2021-05-11T03:50:03.579+05:30"
    },
    {
      "id": 17,
      "name": "Aatmaj Bandopadhyay",
      "email": "aatmaj_bandopadhyay@keeling.io",
      "gender": "Female",
      "status": "Inactive",
      "created_at": "2021-05-11T03:50:03.594+05:30",
      "updated_at": "2021-05-11T03:50:03.594+05:30"
    },
    {
      "id": 18,
      "name": "Chakor Adiga",
      "email": "adiga_chakor@oconnell-jerde.biz",
      "gender": "Female",
      "status": "Active",
      "created_at": "2021-05-11T03:50:03.598+05:30",
      "updated_at": "2021-05-11T03:50:03.598+05:30"
    },
    {
      "id": 19,
      "name": "Rep. Maheswar Achari",
      "email": "achari_maheswar_rep@wintheiser-price.info",
      "gender": "Female",
      "status": "Inactive",
      "created_at": "2021-05-11T03:50:03.639+05:30",
      "updated_at": "2021-05-11T03:50:03.639+05:30"
    },
    {
      "id": 20,
      "name": "Trilochan Joshi",
      "email": "joshi_trilochan@mclaughlin-rohan.io",
      "gender": "Male",
      "status": "Active",
      "created_at": "2021-05-11T03:50:03.650+05:30",
      "updated_at": "2021-05-11T03:50:03.650+05:30"
    }
  ]
}